result.log
# vsim work.top -l result.log -sv_lib C:/questasim_10.4e/uvm-1.1c/win32/uvm_dpi -voptargs="+acc" "+UVM_TESTNAME=pcie_single_write_read_aligned_test" 
# Start time: 10:40:44 on Jun 19,2026
# ** Note: (vsim-3812) Design is being optimized...
# 
# ** Note: (vopt-143) Recognized 1 FSM in module "ddr5_bank_scheduler(fast)".
# 
# ** Note: (vopt-143) Recognized 1 FSM in module "ddr5_phy(fast)".
# 
# Loading sv_std.std
# Loading mtiUvm.uvm_pkg
# Loading work.tb_run_sv_unit(fast)
# Loading work.top(fast)
# Loading work.ddr5_pkg(fast)
# Loading work.run_sv_unit(fast)
# Loading work.axi_pcie_intf(fast__1)
# Loading work.axi_cfg_intf(fast__1)
# Loading work.dfi5_if(fast__1)
# Loading work.ddr5_mem_if_sv_unit(fast)
# Loading work.mem_if(fast__1)
# Loading work.axi64_to_dut512_bridge(fast)
# Loading work.ddr5_ctrl_top(fast)
# Loading work.ddr5_init_fsm(fast)
# Loading work.ddr5_axi_frontend_clean(fast)
# Loading work.ddr5_sub_ch_demux(fast)
# Loading work.ddr5_refresh_engine(fast)
# Loading work.ddr5_bank_scheduler(fast)
# Loading work.ddr5_cmd_encoder(fast)
# Loading work.ddr5_phy(fast)
# Loading work.ddr5_zq_cal(fast)
# Loading work.ddr5_sv_unit(fast)
# Loading work.ddr5(fast)
# Loading mtiUvm.questa_uvm_pkg(fast)
# Loading work.axi_pcie_intf(fast)
# Loading work.axi_cfg_intf(fast)
# Loading C:/questasim_10.4e/uvm-1.1c/win32/uvm_dpi.dll
# ----------------------------------------------------------------
# UVM-1.1d
# (C) 2007-2013 Mentor Graphics Corporation
# (C) 2007-2013 Cadence Design Systems, Inc.
# (C) 2006-2013 Synopsys, Inc.
# (C) 2011-2013 Cypress Semiconductor Corp.
# ----------------------------------------------------------------
# 
#   ***********       IMPORTANT RELEASE NOTES         ************
# 
#   You are using a version of the UVM library that has been compiled
#   with `UVM_NO_DEPRECATED undefined.
#   See http://www.eda.org/svdb/view.php?id=3313 for more details.
# 
#   You are using a version of the UVM library that has been compiled
#   with `UVM_OBJECT_MUST_HAVE_CONSTRUCTOR undefined.
#   See http://www.eda.org/svdb/view.php?id=3770 for more details.
# 
#       (Specify +UVM_NO_RELNOTES to turn off this notice)
# 
# UVM_INFO verilog_src/questa_uvm_pkg-1.2/src/questa_uvm_pkg.sv(215) @ 0: reporter [Questa UVM] QUESTA_UVM-1.2.3
# UVM_INFO verilog_src/questa_uvm_pkg-1.2/src/questa_uvm_pkg.sv(217) @ 0: reporter [Questa UVM]  questa_uvm::init(+struct)
# UVM_INFO @ 0.0 ps: reporter [RNTST] Running test pcie_single_write_read_aligned_test...
# [DDR5 MODEL] DCH pin=1 selects CH1 time=0.0 ps
# UVM_INFO ./AXI_Master_VIP/virtual_sequence.sv(85) @ 0.0 ps: uvm_test_top.sqr@@vseq_single_write_read_aligned_sequence [VSEQ] Starting PCIe Back-to-Back Write-Read
# [AXI 64 to 512 bridge] pack_data is 0 wr_count is 0 at time 7500.0 ps
# [AXI 64 to 512 bridge] pack_data is 6390c8fb9684409a wr_count is 1 at time 8750.0 ps
# [AXI 64 to 512 bridge] pack_data is 27f9de53c4cb09c6390c8fb9684409a wr_count is 2 at time 10000.0 ps
# [AXI 64 to 512 bridge] pack_data is 423cb27cded4df78027f9de53c4cb09c6390c8fb9684409a wr_count is 3 at time 11250.0 ps
# [AXI 64 to 512 bridge] pack_data is b7a8d8183f6475b0423cb27cded4df78027f9de53c4cb09c6390c8fb9684409a wr_count is 4 at time 12500.0 ps
# [AXI 64 to 512 bridge] pack_data is aa61c4d1c5db1eb4b7a8d8183f6475b0423cb27cded4df78027f9de53c4cb09c6390c8fb9684409a wr_count is 5 at time 13750.0 ps
# [AXI 64 to 512 bridge] pack_data is 5a22698f0b928c9baa61c4d1c5db1eb4b7a8d8183f6475b0423cb27cded4df78027f9de53c4cb09c6390c8fb9684409a wr_count is 6 at time 15000.0 ps
# [AXI 64 to 512 bridge] pack_data is 887a36960ee3bcdb5a22698f0b928c9baa61c4d1c5db1eb4b7a8d8183f6475b0423cb27cded4df78027f9de53c4cb09c6390c8fb9684409a wr_count is 7 at time 16250.0 ps
# [DDR5] tINIT1 SIM-SAT: RESET_n stayed LOW for 370032.0 ps; JEDEC target=200000000.0 ps, model gate=10000.0 ps at 370032.0 ps
# [CH0] tINIT2 SATISFIED: CS_n stayed LOW for 370032.0 ps before RESET_n deassert at 370032.0 ps
# [CH1] tINIT2 SATISFIED: CS_n stayed LOW for 370032.0 ps before RESET_n deassert at 370032.0 ps
# [CH0] RESET-INIT BLOCK: CA=0x3fff ignored because tINIT3 (post-reset CS_n LOW hold) is not complete at 383448.0 ps
# [CH1] RESET-INIT BLOCK: CA=0x3fff ignored because tINIT3 (post-reset CS_n LOW hold) is not complete at 383448.0 ps
# [CH0] RESET-INIT BLOCK: CA=0x3fff ignored because tINIT3 (post-reset CS_n LOW hold) is not complete at 384072.0 ps
# [CH1] RESET-INIT BLOCK: CA=0x3fff ignored because tINIT3 (post-reset CS_n LOW hold) is not complete at 384072.0 ps
# [CH0] RESET-INIT BLOCK: CA=0x3fff ignored because tINIT3 (post-reset CS_n LOW hold) is not complete at 384696.0 ps
# [CH1] RESET-INIT BLOCK: CA=0x3fff ignored because tINIT3 (post-reset CS_n LOW hold) is not complete at 384696.0 ps
# [CH0] RESET-INIT BLOCK: CA=0x3fff ignored because tINIT3 (post-reset CS_n LOW hold) is not complete at 385320.0 ps
# [CH1] RESET-INIT BLOCK: CA=0x3fff ignored because tINIT3 (post-reset CS_n LOW hold) is not complete at 385320.0 ps
# [CH0] RESET-INIT BLOCK: CA=0x3fff ignored because tINIT3 (post-reset CS_n LOW hold) is not complete at 385944.0 ps
# [CH1] RESET-INIT BLOCK: CA=0x3fff ignored because tINIT3 (post-reset CS_n LOW hold) is not complete at 385944.0 ps
# [CH0] RESET-INIT BLOCK: CA=0x3fff ignored because tINIT3 (post-reset CS_n LOW hold) is not complete at 386568.0 ps
# [CH1] RESET-INIT BLOCK: CA=0x3fff ignored because tINIT3 (post-reset CS_n LOW hold) is not complete at 386568.0 ps
# [CH0] RESET-INIT BLOCK: CA=0x3fff ignored because tINIT3 (post-reset CS_n LOW hold) is not complete at 387192.0 ps
# [CH1] RESET-INIT BLOCK: CA=0x3fff ignored because tINIT3 (post-reset CS_n LOW hold) is not complete at 387192.0 ps
# [CH0] RESET-INIT BLOCK: CA=0x3fff ignored because tINIT3 (post-reset CS_n LOW hold) is not complete at 387816.0 ps
# [CH1] RESET-INIT BLOCK: CA=0x3fff ignored because tINIT3 (post-reset CS_n LOW hold) is not complete at 387816.0 ps
# [CH0] RESET-INIT BLOCK: CA=0x3fff ignored because tINIT3 (post-reset CS_n LOW hold) is not complete at 388440.0 ps
# [CH1] RESET-INIT BLOCK: CA=0x3fff ignored because tINIT3 (post-reset CS_n LOW hold) is not complete at 388440.0 ps
# [CH0] RESET-INIT BLOCK: CA=0x3fff ignored because tINIT3 (post-reset CS_n LOW hold) is not complete at 389064.0 ps
# [CH1] RESET-INIT BLOCK: CA=0x3fff ignored because tINIT3 (post-reset CS_n LOW hold) is not complete at 389064.0 ps
# [CH0] RESET-INIT BLOCK: CA=0x3fff ignored because tINIT3 (post-reset CS_n LOW hold) is not complete at 389688.0 ps
# [CH1] RESET-INIT BLOCK: CA=0x3fff ignored because tINIT3 (post-reset CS_n LOW hold) is not complete at 389688.0 ps
# [CH0] RESET-INIT BLOCK: CA=0x3fff ignored because tINIT3 (post-reset CS_n LOW hold) is not complete at 390312.0 ps
# [CH1] RESET-INIT BLOCK: CA=0x3fff ignored because tINIT3 (post-reset CS_n LOW hold) is not complete at 390312.0 ps
# [CH0] RESET-INIT BLOCK: CA=0x3fff ignored because tINIT3 (post-reset CS_n LOW hold) is not complete at 390936.0 ps
# [CH1] RESET-INIT BLOCK: CA=0x3fff ignored because tINIT3 (post-reset CS_n LOW hold) is not complete at 390936.0 ps
# [CH0] RESET-INIT BLOCK: CA=0x3fff ignored because tINIT3 (post-reset CS_n LOW hold) is not complete at 391560.0 ps
# [CH1] RESET-INIT BLOCK: CA=0x3fff ignored because tINIT3 (post-reset CS_n LOW hold) is not complete at 391560.0 ps
# [CH0] RESET-INIT BLOCK: CA=0x3fff ignored because tINIT3 (post-reset CS_n LOW hold) is not complete at 392184.0 ps
# [CH1] RESET-INIT BLOCK: CA=0x3fff ignored because tINIT3 (post-reset CS_n LOW hold) is not complete at 392184.0 ps
# [CH0] RESET-INIT BLOCK: CA=0x3fff ignored because tINIT3 (post-reset CS_n LOW hold) is not complete at 392808.0 ps
# [CH1] RESET-INIT BLOCK: CA=0x3fff ignored because tINIT3 (post-reset CS_n LOW hold) is not complete at 392808.0 ps
# [CH0] RESET-INIT BLOCK: CA=0x3fff ignored because tINIT3 (post-reset CS_n LOW hold) is not complete at 393432.0 ps
# [CH1] RESET-INIT BLOCK: CA=0x3fff ignored because tINIT3 (post-reset CS_n LOW hold) is not complete at 393432.0 ps
# [CH0] RESET-INIT BLOCK: CA=0x3fff ignored because tINIT3 (post-reset CS_n LOW hold) is not complete at 394056.0 ps
# [CH1] RESET-INIT BLOCK: CA=0x3fff ignored because tINIT3 (post-reset CS_n LOW hold) is not complete at 394056.0 ps
# [CH0] RESET-INIT BLOCK: CA=0x3fff ignored because tINIT3 (post-reset CS_n LOW hold) is not complete at 394680.0 ps
# [CH1] RESET-INIT BLOCK: CA=0x3fff ignored because tINIT3 (post-reset CS_n LOW hold) is not complete at 394680.0 ps
# [CH0] tINIT3 SIM-SAT: CS_n stayed LOW for 25000.0 ps after RESET_n deassert; JEDEC target=4000000000.0 ps, model gate=20000.0 ps at 395032.0 ps
# [CH1] tINIT3 SIM-SAT: CS_n stayed LOW for 25000.0 ps after RESET_n deassert; JEDEC target=4000000000.0 ps, model gate=20000.0 ps at 395032.0 ps
# [CH0] tINIT4 SIM-SAT: CS_n stayed HIGH for 1520.0 ps; JEDEC target=2000000.0 ps, model gate=1000.0 ps at 396552.0 ps
# [CH0] tINIT5 START: counting 3 NOP clock edges from ck_cnt=42 at 396552.0 ps
# [CH1] tINIT4 SIM-SAT: CS_n stayed HIGH for 1520.0 ps; JEDEC target=2000000.0 ps, model gate=1000.0 ps at 396552.0 ps
# [CH1] tINIT5 START: counting 3 NOP clock edges from ck_cnt=42 at 396552.0 ps
# [CH0] tINIT5 SATISFIED: 3 NOP clock edges observed after tINIT4 at 398424.0 ps
# [CH0] RESET INIT DONE: tINIT5 complete, so MRW to MR0 and normal command decode are now legal at 398424.0 ps
# [CH1] tINIT5 SATISFIED: 3 NOP clock edges observed after tINIT4 at 398424.0 ps
# [CH1] RESET INIT DONE: tINIT5 complete, so MRW to MR0 and normal command decode are now legal at 398424.0 ps
# [CH0] NOP at 682968.0 ps
# [CH1] NOP at 682968.0 ps
# [CH0] NOP at 844584.0 ps
# [CH1] NOP at 844584.0 ps
# [CH0] MRW Cy1 MR=0 at 855816.0 ps
# [CH1] MRW Cy1 MR=0 at 855816.0 ps
# [CH0] MRW MR0 <= 0x24 at 856440.0 ps
# [CH0] MR0: CL=40 CWL=38 BL=16 at 856440.0 ps
# [CH1] MRW MR0 <= 0x24 at 856440.0 ps
# [CH1] MR0: CL=40 CWL=38 BL=16 at 856440.0 ps
# [CH0] MRW Cy1 MR=1 at 862056.0 ps
# [CH1] MRW Cy1 MR=1 at 862056.0 ps
# [CH0] MRW MR1 <= 0x00 at 862680.0 ps
# [CH1] MRW MR1 <= 0x00 at 862680.0 ps
# [CH0] MRW Cy1 MR=2 at 868296.0 ps
# [CH1] MRW Cy1 MR=2 at 868296.0 ps
# [CH0] MRW MR2 <= 0x28 at 868920.0 ps
# [CH1] MRW MR2 <= 0x28 at 868920.0 ps
# [CH0] MRW Cy1 MR=3 at 874536.0 ps
# [CH1] MRW Cy1 MR=3 at 874536.0 ps
# [CH0] MRW MR3 <= 0x24 at 875160.0 ps
# [CH1] MRW MR3 <= 0x24 at 875160.0 ps
# [CH0] MRW Cy1 MR=4 at 880776.0 ps
# [CH1] MRW Cy1 MR=4 at 880776.0 ps
# [CH0] MRW MR4 <= 0x02 at 881400.0 ps
# [CH1] MRW MR4 <= 0x02 at 881400.0 ps
# [CH0] MRW Cy1 MR=5 at 887016.0 ps
# [CH1] MRW Cy1 MR=5 at 887016.0 ps
# [CH0] MRW MR5 <= 0x00 at 887640.0 ps
# [CH1] MRW MR5 <= 0x00 at 887640.0 ps
# [CH0] MRW Cy1 MR=6 at 893256.0 ps
# [CH1] MRW Cy1 MR=6 at 893256.0 ps
# [CH0] MRW MR6 <= 0x00 at 893880.0 ps
# [DUAL-CH] INIT DONE at 893880.0 ps  CL=40 CWL=38 RL=40 WL=38 BL=16
# [CH1] MRW MR6 <= 0x00 at 893880.0 ps
# [CTRL][AW]       t=1133000.0 ps addr=a5c3adb8 id=8 len=0
# [CTRL][W]        t=1134000.0 ps wdata=a191c5f67de84d2e887a36960ee3bcdb5a22698f0b928c9baa61c4d1c5db1eb4b7a8d8183f6475b0423cb27cded4df78027f9de53c4cb09c6390c8fb9684409a wstrb=ffffffffffffffff wlast=1
# [CTRL][CMD_CH1]  t=1138000.0 ps cmd=CMD_ACT bg=3 ba=2 row=a5c3 col=0
# [CH1] ACT Cy1 bank=14 CA=0x038c at 1137864.0 ps
# [CH1] ACT bank=14 row=0xa5c3 at 1138488.0 ps
# [DDR5 DEMUX][REQ_ACCEPTED] t=1151000.0 ps req_is_wr=1 req_addr=a5c3adb8 req_id=8
# [DDR5 DEMUX][DECODE] bg=3 ba=2 row=a5c3 col=1b6 ch0_valid=0 ch1_valid=1 ch0_ready=0 ch1_ready=1
# [DDR5 DEMUX][WRITE_FULL] req_wdata[511:0]=a191c5f67de84d2e887a36960ee3bcdb5a22698f0b928c9baa61c4d1c5db1eb4b7a8d8183f6475b0423cb27cded4df78027f9de53c4cb09c6390c8fb9684409a req_wstrb[63:0]=ffffffffffffffff
# [DDR5 DEMUX][WRITE_CH0] ch0_id=8 ch0_wdata[511:0]=0 ch0_wstrb[63:0]=0
# [DDR5 DEMUX][WRITE_CH1] ch1_id=8 ch1_wdata[511:0]=a191c5f67de84d2e887a36960ee3bcdb5a22698f0b928c9baa61c4d1c5db1eb4b7a8d8183f6475b0423cb27cded4df78027f9de53c4cb09c6390c8fb9684409a ch1_wstrb[63:0]=ffffffffffffffff
# [CTRL][FE_REQ]   t=1151000.0 ps is_wr=1 addr=a5c3adb8
# [CTRL][CMD_CH1]  t=1151000.0 ps cmd=CMD_WR bg=3 ba=2 row=0 col=1b6
# [CH1] WR Cy1 bank=14 at 1151592.0 ps
# [CH1] WR Cy2 bank=14 row=0xa5c3 col=0x1b0 AP=0 at 1152216.0 ps
# [CTRL][B]        t=1153000.0 ps bid=8 bresp=0
# UVM_INFO ./AXI_Master_VIP/virtual_sequence.sv(87) @ 1155000.0 ps: uvm_test_top.sqr@@vseq_single_write_read_aligned_sequence [VSEQ] Completed PCIe Back-to-Back Write-Read
# [CH1] pipeline[0] fired wr=1 rd=0 time=1176240.0 ps
# [CTRL][DFI_WR]   t=1181000.0 ps ch0_wrdata_w0=0 ch1_wrdata_w0=9684409a en=0
# MEMORY MODEL DQS dq64=9684409affffffff  CH0 dqs_t=z dqs_c=z  CH1 dqs_t=0 dqs_c=f  time=1181250.0 ps
# [CH1] DQS fall lane=3 dq64=9684409affffffff selected_dq32=9684409a mask=000000000000000000000000ff000000 dq_neg=00000000000000000000000096000000 time=1181250.0 ps
# [CH1] DQS fall lane=2 dq64=9684409affffffff selected_dq32=9684409a mask=00000000000000000000000000ff0000 dq_neg=00000000000000000000000096840000 time=1181250.0 ps
# [CH1] DQS fall lane=1 dq64=9684409affffffff selected_dq32=9684409a mask=0000000000000000000000000000ff00 dq_neg=00000000000000000000000096844000 time=1181250.0 ps
# [CH1] DQS fall lane=0 dq64=9684409affffffff selected_dq32=9684409a mask=000000000000000000000000000000ff dq_neg=0000000000000000000000009684409a time=1181250.0 ps
# [CH1 | FALLING EDGE] DQS capture mask=000000000000000000000000000000000000000000000000000000000000000000000000000000000000000000000000000000000000000000000000ffffffff data=0000000000000000000000000000000000000000000000000000000000000000000000000000000000000000000000000000000000000000000000009684409a pos=0 time=1181544.0 ps
# [CH1 | EDGE-0] WRITE BEAT bg=3 ba=2 row=0a5c3 col_beat=00001b0  dq64=9684409affffffff selected_dq32=9684409a  time=1181544.0 ps
# MEMORY MODEL DQS dq64=6390c8fbffffffff  CH0 dqs_t=z dqs_c=z  CH1 dqs_t=f dqs_c=0  time=1182500.0 ps
# [CH1] DQS rise lane=3 dq64=6390c8fbffffffff selected_dq32=6390c8fb mask=000000000000000000000000ff000000 dq_pos=00000000000000000000000063000000 time=1182500.0 ps
# [CH1] DQS rise lane=2 dq64=6390c8fbffffffff selected_dq32=6390c8fb mask=00000000000000000000000000ff0000 dq_pos=00000000000000000000000063900000 time=1182500.0 ps
# [CH1] DQS rise lane=1 dq64=6390c8fbffffffff selected_dq32=6390c8fb mask=0000000000000000000000000000ff00 dq_pos=0000000000000000000000006390c800 time=1182500.0 ps
# [CH1] DQS rise lane=0 dq64=6390c8fbffffffff selected_dq32=6390c8fb mask=000000000000000000000000000000ff dq_pos=0000000000000000000000006390c8fb time=1182500.0 ps
# [CH1 | RISING EDGE ] DQS capture mask=0000000000000000000000000000000000000000000000000000000000000000000000000000000000000000000000000000000000000000ffffffff00000000 data=00000000000000000000000000000000000000000000000000000000000000000000000000000000000000000000000000000000000000006390c8fb9684409a pos=1 time=1182792.0 ps
# [CH1 | EDGE-1] WRITE BEAT bg=3 ba=2 row=0a5c3 col_beat=00001b1  dq64=6390c8fbffffffff selected_dq32=6390c8fb  time=1182792.0 ps
# MEMORY MODEL DQS dq64=3c4cb09cffffffff  CH0 dqs_t=z dqs_c=z  CH1 dqs_t=0 dqs_c=f  time=1183750.0 ps
# [CH1] DQS fall lane=3 dq64=3c4cb09cffffffff selected_dq32=3c4cb09c mask=000000000000000000000000ff000000 dq_neg=0000000000000000000000003c000000 time=1183750.0 ps
# [CH1] DQS fall lane=2 dq64=3c4cb09cffffffff selected_dq32=3c4cb09c mask=00000000000000000000000000ff0000 dq_neg=0000000000000000000000003c4c0000 time=1183750.0 ps
# [CH1] DQS fall lane=1 dq64=3c4cb09cffffffff selected_dq32=3c4cb09c mask=0000000000000000000000000000ff00 dq_neg=0000000000000000000000003c4cb000 time=1183750.0 ps
# [CH1] DQS fall lane=0 dq64=3c4cb09cffffffff selected_dq32=3c4cb09c mask=000000000000000000000000000000ff dq_neg=0000000000000000000000003c4cb09c time=1183750.0 ps
# [CH1 | FALLING EDGE] DQS capture mask=00000000000000000000000000000000000000000000000000000000000000000000000000000000000000000000000000000000ffffffff0000000000000000 data=000000000000000000000000000000000000000000000000000000000000000000000000000000000000000000000000000000003c4cb09c6390c8fb9684409a pos=2 time=1184040.0 ps
# [CH1 | EDGE-2] WRITE BEAT bg=3 ba=2 row=0a5c3 col_beat=00001b2  dq64=3c4cb09cffffffff selected_dq32=3c4cb09c  time=1184040.0 ps
# MEMORY MODEL DQS dq64=027f9de5ffffffff  CH0 dqs_t=z dqs_c=z  CH1 dqs_t=f dqs_c=0  time=1185000.0 ps
# [CH1] DQS rise lane=3 dq64=027f9de5ffffffff selected_dq32=027f9de5 mask=000000000000000000000000ff000000 dq_pos=00000000000000000000000002000000 time=1185000.0 ps
# [CH1] DQS rise lane=2 dq64=027f9de5ffffffff selected_dq32=027f9de5 mask=00000000000000000000000000ff0000 dq_pos=000000000000000000000000027f0000 time=1185000.0 ps
# [CH1] DQS rise lane=1 dq64=027f9de5ffffffff selected_dq32=027f9de5 mask=0000000000000000000000000000ff00 dq_pos=000000000000000000000000027f9d00 time=1185000.0 ps
# [CH1] DQS rise lane=0 dq64=027f9de5ffffffff selected_dq32=027f9de5 mask=000000000000000000000000000000ff dq_pos=000000000000000000000000027f9de5 time=1185000.0 ps
# [CH1 | RISING EDGE ] DQS capture mask=000000000000000000000000000000000000000000000000000000000000000000000000000000000000000000000000ffffffff000000000000000000000000 data=000000000000000000000000000000000000000000000000000000000000000000000000000000000000000000000000027f9de53c4cb09c6390c8fb9684409a pos=3 time=1185288.0 ps
# [CH1 | EDGE-3] WRITE BEAT bg=3 ba=2 row=0a5c3 col_beat=00001b3  dq64=027f9de5ffffffff selected_dq32=027f9de5  time=1185288.0 ps
# MEMORY MODEL DQS dq64=ded4df78ffffffff  CH0 dqs_t=z dqs_c=z  CH1 dqs_t=0 dqs_c=f  time=1186250.0 ps
# [CH1] DQS fall lane=3 dq64=ded4df78ffffffff selected_dq32=ded4df78 mask=000000000000000000000000ff000000 dq_neg=000000000000000000000000de000000 time=1186250.0 ps
# [CH1] DQS fall lane=2 dq64=ded4df78ffffffff selected_dq32=ded4df78 mask=00000000000000000000000000ff0000 dq_neg=000000000000000000000000ded40000 time=1186250.0 ps
# [CH1] DQS fall lane=1 dq64=ded4df78ffffffff selected_dq32=ded4df78 mask=0000000000000000000000000000ff00 dq_neg=000000000000000000000000ded4df00 time=1186250.0 ps
# [CH1] DQS fall lane=0 dq64=ded4df78ffffffff selected_dq32=ded4df78 mask=000000000000000000000000000000ff dq_neg=000000000000000000000000ded4df78 time=1186250.0 ps
# [CH1 | FALLING EDGE] DQS capture mask=0000000000000000000000000000000000000000000000000000000000000000000000000000000000000000ffffffff00000000000000000000000000000000 data=0000000000000000000000000000000000000000000000000000000000000000000000000000000000000000ded4df78027f9de53c4cb09c6390c8fb9684409a pos=4 time=1186536.0 ps
# [CH1 | EDGE-4] WRITE BEAT bg=3 ba=2 row=0a5c3 col_beat=00001b4  dq64=ded4df78ffffffff selected_dq32=ded4df78  time=1186536.0 ps
# MEMORY MODEL DQS dq64=423cb27cffffffff  CH0 dqs_t=z dqs_c=z  CH1 dqs_t=f dqs_c=0  time=1187500.0 ps
# [CH1] DQS rise lane=3 dq64=423cb27cffffffff selected_dq32=423cb27c mask=000000000000000000000000ff000000 dq_pos=00000000000000000000000042000000 time=1187500.0 ps
# [CH1] DQS rise lane=2 dq64=423cb27cffffffff selected_dq32=423cb27c mask=00000000000000000000000000ff0000 dq_pos=000000000000000000000000423c0000 time=1187500.0 ps
# [CH1] DQS rise lane=1 dq64=423cb27cffffffff selected_dq32=423cb27c mask=0000000000000000000000000000ff00 dq_pos=000000000000000000000000423cb200 time=1187500.0 ps
# [CH1] DQS rise lane=0 dq64=423cb27cffffffff selected_dq32=423cb27c mask=000000000000000000000000000000ff dq_pos=000000000000000000000000423cb27c time=1187500.0 ps
# [CH1 | RISING EDGE ] DQS capture mask=00000000000000000000000000000000000000000000000000000000000000000000000000000000ffffffff0000000000000000000000000000000000000000 data=00000000000000000000000000000000000000000000000000000000000000000000000000000000423cb27cded4df78027f9de53c4cb09c6390c8fb9684409a pos=5 time=1187784.0 ps
# [CH1 | EDGE-5] WRITE BEAT bg=3 ba=2 row=0a5c3 col_beat=00001b5  dq64=423cb27cffffffff selected_dq32=423cb27c  time=1187784.0 ps
# MEMORY MODEL DQS dq64=3f6475b0ffffffff  CH0 dqs_t=z dqs_c=z  CH1 dqs_t=0 dqs_c=f  time=1188750.0 ps
# [CH1] DQS fall lane=3 dq64=3f6475b0ffffffff selected_dq32=3f6475b0 mask=000000000000000000000000ff000000 dq_neg=0000000000000000000000003f000000 time=1188750.0 ps
# [CH1] DQS fall lane=2 dq64=3f6475b0ffffffff selected_dq32=3f6475b0 mask=00000000000000000000000000ff0000 dq_neg=0000000000000000000000003f640000 time=1188750.0 ps
# [CH1] DQS fall lane=1 dq64=3f6475b0ffffffff selected_dq32=3f6475b0 mask=0000000000000000000000000000ff00 dq_neg=0000000000000000000000003f647500 time=1188750.0 ps
# [CH1] DQS fall lane=0 dq64=3f6475b0ffffffff selected_dq32=3f6475b0 mask=000000000000000000000000000000ff dq_neg=0000000000000000000000003f6475b0 time=1188750.0 ps
# [CH1 | FALLING EDGE] DQS capture mask=000000000000000000000000000000000000000000000000000000000000000000000000ffffffff000000000000000000000000000000000000000000000000 data=0000000000000000000000000000000000000000000000000000000000000000000000003f6475b0423cb27cded4df78027f9de53c4cb09c6390c8fb9684409a pos=6 time=1189032.0 ps
# [CH1 | EDGE-6] WRITE BEAT bg=3 ba=2 row=0a5c3 col_beat=00001b6  dq64=3f6475b0ffffffff selected_dq32=3f6475b0  time=1189032.0 ps
# MEMORY MODEL DQS dq64=b7a8d818ffffffff  CH0 dqs_t=z dqs_c=z  CH1 dqs_t=f dqs_c=0  time=1190000.0 ps
# [CH1] DQS rise lane=3 dq64=b7a8d818ffffffff selected_dq32=b7a8d818 mask=000000000000000000000000ff000000 dq_pos=000000000000000000000000b7000000 time=1190000.0 ps
# [CH1] DQS rise lane=2 dq64=b7a8d818ffffffff selected_dq32=b7a8d818 mask=00000000000000000000000000ff0000 dq_pos=000000000000000000000000b7a80000 time=1190000.0 ps
# [CH1] DQS rise lane=1 dq64=b7a8d818ffffffff selected_dq32=b7a8d818 mask=0000000000000000000000000000ff00 dq_pos=000000000000000000000000b7a8d800 time=1190000.0 ps
# [CH1] DQS rise lane=0 dq64=b7a8d818ffffffff selected_dq32=b7a8d818 mask=000000000000000000000000000000ff dq_pos=000000000000000000000000b7a8d818 time=1190000.0 ps
# [CH1 | RISING EDGE ] DQS capture mask=0000000000000000000000000000000000000000000000000000000000000000ffffffff00000000000000000000000000000000000000000000000000000000 data=0000000000000000000000000000000000000000000000000000000000000000b7a8d8183f6475b0423cb27cded4df78027f9de53c4cb09c6390c8fb9684409a pos=7 time=1190280.0 ps
# [CH1 | EDGE-7] WRITE BEAT bg=3 ba=2 row=0a5c3 col_beat=00001b7  dq64=b7a8d818ffffffff selected_dq32=b7a8d818  time=1190280.0 ps
# MEMORY MODEL DQS dq64=c5db1eb4ffffffff  CH0 dqs_t=z dqs_c=z  CH1 dqs_t=0 dqs_c=f  time=1191250.0 ps
# [CH1] DQS fall lane=3 dq64=c5db1eb4ffffffff selected_dq32=c5db1eb4 mask=000000000000000000000000ff000000 dq_neg=000000000000000000000000c5000000 time=1191250.0 ps
# [CH1] DQS fall lane=2 dq64=c5db1eb4ffffffff selected_dq32=c5db1eb4 mask=00000000000000000000000000ff0000 dq_neg=000000000000000000000000c5db0000 time=1191250.0 ps
# [CH1] DQS fall lane=1 dq64=c5db1eb4ffffffff selected_dq32=c5db1eb4 mask=0000000000000000000000000000ff00 dq_neg=000000000000000000000000c5db1e00 time=1191250.0 ps
# [CH1] DQS fall lane=0 dq64=c5db1eb4ffffffff selected_dq32=c5db1eb4 mask=000000000000000000000000000000ff dq_neg=000000000000000000000000c5db1eb4 time=1191250.0 ps
# [CH1 | FALLING EDGE] DQS capture mask=00000000000000000000000000000000000000000000000000000000ffffffff0000000000000000000000000000000000000000000000000000000000000000 data=00000000000000000000000000000000000000000000000000000000c5db1eb4b7a8d8183f6475b0423cb27cded4df78027f9de53c4cb09c6390c8fb9684409a pos=8 time=1191528.0 ps
# [CH1 | EDGE-8] WRITE BEAT bg=3 ba=2 row=0a5c3 col_beat=00001b8  dq64=c5db1eb4ffffffff selected_dq32=c5db1eb4  time=1191528.0 ps
# MEMORY MODEL DQS dq64=aa61c4d1ffffffff  CH0 dqs_t=z dqs_c=z  CH1 dqs_t=f dqs_c=0  time=1192500.0 ps
# [CH1] DQS rise lane=3 dq64=aa61c4d1ffffffff selected_dq32=aa61c4d1 mask=000000000000000000000000ff000000 dq_pos=000000000000000000000000aa000000 time=1192500.0 ps
# [CH1] DQS rise lane=2 dq64=aa61c4d1ffffffff selected_dq32=aa61c4d1 mask=00000000000000000000000000ff0000 dq_pos=000000000000000000000000aa610000 time=1192500.0 ps
# [CH1] DQS rise lane=1 dq64=aa61c4d1ffffffff selected_dq32=aa61c4d1 mask=0000000000000000000000000000ff00 dq_pos=000000000000000000000000aa61c400 time=1192500.0 ps
# [CH1] DQS rise lane=0 dq64=aa61c4d1ffffffff selected_dq32=aa61c4d1 mask=000000000000000000000000000000ff dq_pos=000000000000000000000000aa61c4d1 time=1192500.0 ps
# [CH1 | RISING EDGE ] DQS capture mask=000000000000000000000000000000000000000000000000ffffffff000000000000000000000000000000000000000000000000000000000000000000000000 data=000000000000000000000000000000000000000000000000aa61c4d1c5db1eb4b7a8d8183f6475b0423cb27cded4df78027f9de53c4cb09c6390c8fb9684409a pos=9 time=1192776.0 ps
# [CH1 | EDGE-9] WRITE BEAT bg=3 ba=2 row=0a5c3 col_beat=00001b9  dq64=aa61c4d1ffffffff selected_dq32=aa61c4d1  time=1192776.0 ps
# MEMORY MODEL DQS dq64=0b928c9bffffffff  CH0 dqs_t=z dqs_c=z  CH1 dqs_t=0 dqs_c=f  time=1193750.0 ps
# [CH1] DQS fall lane=3 dq64=0b928c9bffffffff selected_dq32=0b928c9b mask=000000000000000000000000ff000000 dq_neg=0000000000000000000000000b000000 time=1193750.0 ps
# [CH1] DQS fall lane=2 dq64=0b928c9bffffffff selected_dq32=0b928c9b mask=00000000000000000000000000ff0000 dq_neg=0000000000000000000000000b920000 time=1193750.0 ps
# [CH1] DQS fall lane=1 dq64=0b928c9bffffffff selected_dq32=0b928c9b mask=0000000000000000000000000000ff00 dq_neg=0000000000000000000000000b928c00 time=1193750.0 ps
# [CH1] DQS fall lane=0 dq64=0b928c9bffffffff selected_dq32=0b928c9b mask=000000000000000000000000000000ff dq_neg=0000000000000000000000000b928c9b time=1193750.0 ps
